Balsa Trust Testing/3-Lat-100ms/F0002CH1.CSV

Record Length,2.50E+03,,0,0.716
Sample Interval,4.00E-04,,0.0004,0.716
Trigger Point,0.00E+00,,0.0008,0.716
,,,0.0012,0.716
,,,0.0016,0.716
,,,0.002,0.716
Source,CH1,,0.0024,0.716
Vertical Units,V,,0.0028,0.716
Vertical Scale,1.00E-01,,0.0032,0.716
Vertical Offset,-1.23E+00,,0.0036,0.716
Horizontal Units,s,,0.004,0.716
Horizontal Scale,1.00E-01,,0.0044,0.716
Pt Fmt,Y,,0.0048,0.716
Yzero,0.00E+00,,0.0052,0.716
Probe Atten,1.00E+00,,0.0056,0.716
Model Number,TDS2002B,,0.006,0.716
Serial Number,C100707,,0.0064,0.716
Firmware Version,FV:v22.01,,0.0068,0.716
,,,0.0072,0.716
,,,0.0076,0.716
,,,0.008,0.716
,,,0.0084,0.716
,,,0.0088,0.716
,,,0.0092,0.716
,,,0.0096,0.716
,,,0.01,0.716
,,,0.0104,0.716
,,,0.0108,0.716
,,,0.0112,0.716
,,,0.0116,0.716
,,,0.012,0.716
,,,0.0124,0.716
,,,0.0128,0.716
,,,0.0132,0.716
,,,0.0136,0.716
,,,0.014,0.716
,,,0.0144,0.716
,,,0.0148,0.716
,,,0.0152,0.716
,,,0.0156,0.716
,,,0.016,0.716
,,,0.0164,0.716
,,,0.0168,0.716
,,,0.0172,0.716
,,,0.0176,0.716
,,,0.018,0.716
,,,0.0184,0.716
,,,0.0188,0.716
,,,0.0192,0.716
,,,0.0196,0.716
,,,0.02,0.716
,,,0.0204,0.716
,,,0.0208,0.716
,,,0.0212,0.716
,,,0.0216,0.716
,,,0.022,0.716
,,,0.0224,0.716
,,,0.0228,0.716
,,,0.0232,0.716
,,,0.0236,0.716
,,,0.024,0.716
,,,0.0244,0.716
,,,0.0248,0.716
,,,0.0252,0.716
,,,0.0256,0.716
,,,0.026,0.716
,,,0.0264,0.716
,,,0.0268,0.716
,,,0.0272,0.716
,,,0.0276,0.716
,,,0.028,0.716
,,,0.0284,0.716
,,,0.0288,0.716
,,,0.0292,0.716
,,,0.0296,0.716
,,,0.03,0.716
,,,0.0304,0.716
,,,0.0308,0.716
,,,0.0312,0.716
,,,0.0316,0.716
,,,0.032,0.716
,,,0.0324,0.716
,,,0.0328,0.716
,,,0.0332,0.716
,,,0.0336,0.716
,,,0.034,0.716
,,,0.0344,0.716
,,,0.0348,0.716
,,,0.0352,0.716
,,,0.0356,0.716
,,,0.036,0.716
,,,0.0364,0.716
,,,0.0368,0.716
,,,0.0372,0.716
,,,0.0376,0.716
,,,0.038,0.716
,,,0.0384,0.716
,,,0.0388,0.716
,,,0.0392,0.716
,,,0.0396,0.716
,,,0.04,0.716
,,,0.0404,0.716
,,,0.0408,0.716
,,,0.0412,0.716
,,,0.0416,0.716
,,,0.042,0.716
,,,0.0424,0.716
,,,0.0428,0.716
,,,0.0432,0.716
,,,0.0436,0.716
,,,0.044,0.716
,,,0.0444,0.716
,,,0.0448,0.716
,,,0.0452,0.716
,,,0.0456,0.716
,,,0.046,0.716
,,,0.0464,0.716
,,,0.0468,0.716
,,,0.0472,0.716
,,,0.0476,0.716
,,,0.048,0.716
,,,0.0484,0.716
,,,0.0488,0.716
,,,0.0492,0.716
,,,0.0496,0.716
,,,0.05,0.716
,,,0.0504,0.716
,,,0.0508,0.716
,,,0.0512,0.716
,,,0.0516,0.716
,,,0.052,0.716
,,,0.0524,0.716
,,,0.0528,0.716
,,,0.0532,0.716
,,,0.0536,0.716
,,,0.054,0.716
,,,0.0544,0.716
,,,0.0548,0.716
,,,0.0552,0.716
,,,0.0556,0.716
,,,0.056,0.716
,,,0.0564,0.716
,,,0.0568,0.716
,,,0.0572,0.716
,,,0.0576,0.716
,,,0.058,0.716
,,,0.0584,0.716
,,,0.0588,0.716
,,,0.0592,0.716
,,,0.0596,0.716
,,,0.06,0.716
,,,0.0604,0.716
,,,0.0608,0.716
,,,0.0612,0.716
,,,0.0616,0.716
,,,0.062,0.716
,,,0.0624,0.716
,,,0.0628,0.716
,,,0.0632,0.716
,,,0.0636,0.716
,,,0.064,0.716
,,,0.0644,0.716
,,,0.0648,0.716
,,,0.0652,0.716
,,,0.0656,0.716
,,,0.066,1.228
,,,0.0664,1.228
,,,0.0668,1.224
,,,0.0672,1.228
,,,0.0676,1.232
,,,0.068,1.232
,,,0.0684,1.236
,,,0.0688,1.228
,,,0.0692,1.232
,,,0.0696,1.232
,,,0.07,1.228
,,,0.0704,1.228
,,,0.0708,1.232
,,,0.0712,1.224
,,,0.0716,1.228
,,,0.072,1.232
,,,0.0724,1.232
,,,0.0728,1.228
,,,0.0732,1.232
,,,0.0736,1.232
,,,0.074,1.232
,,,0.0744,1.236
,,,0.0748,1.228
,,,0.0752,1.232
,,,0.0756,1.224
,,,0.076,1.228
,,,0.0764,1.224
,,,0.0768,1.228
,,,0.0772,1.232
,,,0.0776,1.224
,,,0.078,1.228
,,,0.0784,1.232
,,,0.0788,1.224
,,,0.0792,1.228
,,,0.0796,1.232
,,,0.08,1.224
,,,0.0804,1.228
,,,0.0808,1.232
,,,0.0812,1.224
,,,0.0816,1.228
,,,0.082,1.228
,,,0.0824,1.224
,,,0.0828,1.232
,,,0.0832,1.228
,,,0.0836,1.232
,,,0.084,1.232
,,,0.0844,1.232
,,,0.0848,1.232
,,,0.0852,1.228
,,,0.0856,1.224
,,,0.086,1.228
,,,0.0864,1.228
,,,0.0868,1.228
,,,0.0872,1.228
,,,0.0876,1.228
,,,0.088,1.228
,,,0.0884,1.228
,,,0.0888,1.228
,,,0.0892,1.232
,,,0.0896,1.228
,,,0.09,1.228
,,,0.0904,1.232
,,,0.0908,1.232
,,,0.0912,1.228
,,,0.0916,1.232
,,,0.092,1.228
,,,0.0924,1.228
,,,0.0928,1.232
,,,0.0932,1.232
,,,0.0936,1.228
,,,0.094,1.232
,,,0.0944,1.236
,,,0.0948,1.236
,,,0.0952,1.232
,,,0.0956,1.236
,,,0.096,1.228
,,,0.0964,1.232
,,,0.0968,1.232
,,,0.0972,1.232
,,,0.0976,1.228
,,,0.098,1.228
,,,0.0984,1.228
,,,0.0988,1.236
,,,0.0992,1.228
,,,0.0996,1.228
,,,0.1,1.228
,,,0.1004,1.228
,,,0.1008,1.224
,,,0.1012,1.232
,,,0.1016,1.228
,,,0.102,1.224
,,,0.1024,1.228
,,,0.1028,1.228
,,,0.1032,1.228
,,,0.1036,1.232
,,,0.104,1.224
,,,0.1044,1.232
,,,0.1048,1.224
,,,0.1052,1.232
,,,0.1056,1.228
,,,0.106,1.228
,,,0.1064,1.224
,,,0.1068,1.228
,,,0.1072,1.228
,,,0.1076,1.232
,,,0.108,1.224
,,,0.1084,1.232
,,,0.1088,1.22
,,,0.1092,1.228
,,,0.1096,1.228
,,,0.11,1.228
,,,0.1104,1.228
,,,0.1108,1.228
,,,0.1112,1.228
,,,0.1116,1.228
,,,0.112,1.232
,,,0.1124,1.232
,,,0.1128,1.232
,,,0.1132,1.224
,,,0.1136,1.228
,,,0.114,1.232
,,,0.1144,1.228
,,,0.1148,1.236
,,,0.1152,1.232
,,,0.1156,1.232
,,,0.116,1.232
,,,0.1164,1.236
,,,0.1168,1.232
,,,0.1172,1.232
,,,0.1176,1.232
,,,0.118,1.232
,,,0.1184,1.236
,,,0.1188,1.232
,,,0.1192,1.228
,,,0.1196,1.232
,,,0.12,1.228
,,,0.1204,1.236
,,,0.1208,1.232
,,,0.1212,1.232
,,,0.1216,1.236
,,,0.122,1.228
,,,0.1224,1.236
,,,0.1228,1.228
,,,0.1232,1.236
,,,0.1236,1.228
,,,0.124,1.236
,,,0.1244,1.232
,,,0.1248,1.228
,,,0.1252,1.232
,,,0.1256,1.228
,,,0.126,1.224
,,,0.1264,1.228
,,,0.1268,1.232
,,,0.1272,1.228
,,,0.1276,1.236
,,,0.128,1.228
,,,0.1284,1.228
,,,0.1288,1.224
,,,0.1292,1.22
,,,0.1296,1.228
,,,0.13,1.224
,,,0.1304,1.228
,,,0.1308,1.232
,,,0.1312,1.224
,,,0.1316,1.224
,,,0.132,1.228
,,,0.1324,1.224
,,,0.1328,1.22
,,,0.1332,1.22
,,,0.1336,1.224
,,,0.134,1.228
,,,0.1344,1.22
,,,0.1348,1.228
,,,0.1352,1.224
,,,0.1356,1.224
,,,0.136,1.216
,,,0.1364,1.224
,,,0.1368,1.224
,,,0.1372,1.22
,,,0.1376,1.22
,,,0.138,1.224
,,,0.1384,1.22
,,,0.1388,1.22
,,,0.1392,1.224
,,,0.1396,1.22
,,,0.14,1.22
,,,0.1404,1.216
,,,0.1408,1.224
,,,0.1412,1.22
,,,0.1416,1.216
,,,0.142,1.22
,,,0.1424,1.22
,,,0.1428,1.22
,,,0.1432,1.22
,,,0.1436,1.224
,,,0.144,1.224
,,,0.1444,1.224
,,,0.1448,1.224
,,,0.1452,1.228
,,,0.1456,1.22
,,,0.146,1.22
,,,0.1464,1.212
,,,0.1468,1.224
,,,0.1472,1.224
,,,0.1476,1.22
,,,0.148,1.22
,,,0.1484,1.22
,,,0.1488,1.216
,,,0.1492,1.228
,,,0.1496,1.224
,,,0.15,1.216
,,,0.1504,1.22
,,,0.1508,1.22
,,,0.1512,1.212
,,,0.1516,1.212
,,,0.152,1.216
,,,0.1524,1.216
,,,0.1528,1.208
,,,0.1532,1.212
,,,0.1536,1.212
,,,0.154,1.204
,,,0.1544,1.212
,,,0.1548,1.212
,,,0.1552,1.208
,,,0.1556,1.216
,,,0.156,1.208
,,,0.1564,1.204
,,,0.1568,1.208
,,,0.1572,1.2
,,,0.1576,1.204
,,,0.158,1.204
,,,0.1584,1.208
,,,0.1588,1.204
,,,0.1592,1.204
,,,0.1596,1.204
,,,0.16,1.208
,,,0.1604,1.2
,,,0.1608,1.208
,,,0.1612,1.204
,,,0.1616,1.208
,,,0.162,1.204
,,,0.1624,1.208
,,,0.1628,1.208
,,,0.1632,1.212
,,,0.1636,1.208
,,,0.164,1.216
,,,0.1644,1.2
,,,0.1648,1.212
,,,0.1652,1.2
,,,0.1656,1.212
,,,0.166,1.212
,,,0.1664,1.212
,,,0.1668,1.208
,,,0.1672,1.22
,,,0.1676,1.216
,,,0.168,1.22
,,,0.1684,1.212
,,,0.1688,1.216
,,,0.1692,1.212
,,,0.1696,1.212
,,,0.17,1.212
,,,0.1704,1.22
,,,0.1708,1.212
,,,0.1712,1.22
,,,0.1716,1.212
,,,0.172,1.22
,,,0.1724,1.216
,,,0.1728,1.212
,,,0.1732,1.208
,,,0.1736,1.204
,,,0.174,1.212
,,,0.1744,1.212
,,,0.1748,1.208
,,,0.1752,1.212
,,,0.1756,1.212
,,,0.176,1.204
,,,0.1764,1.204
,,,0.1768,1.212
,,,0.1772,1.212
,,,0.1776,1.208
,,,0.178,1.2
,,,0.1784,1.204
,,,0.1788,1.208
,,,0.1792,1.208
,,,0.1796,1.2
,,,0.18,1.208
,,,0.1804,1.204
,,,0.1808,1.208
,,,0.1812,1.208
,,,0.1816,1.204
,,,0.182,1.204
,,,0.1824,1.208
,,,0.1828,1.208
,,,0.1832,1.216
,,,0.1836,1.208
,,,0.184,1.208
,,,0.1844,1.212
,,,0.1848,1.208
,,,0.1852,1.216
,,,0.1856,1.22
,,,0.186,1.212
,,,0.1864,1.224
,,,0.1868,1.22
,,,0.1872,1.232
,,,0.1876,1.216
,,,0.188,1.224
,,,0.1884,1.216
,,,0.1888,1.228
,,,0.1892,1.22
,,,0.1896,1.224
,,,0.19,1.224
,,,0.1904,1.22
,,,0.1908,1.224
,,,0.1912,1.228
,,,0.1916,1.224
,,,0.192,1.224
,,,0.1924,1.22
,,,0.1928,1.228
,,,0.1932,1.228
,,,0.1936,1.224
,,,0.194,1.228
,,,0.1944,1.228
,,,0.1948,1.228
,,,0.1952,1.228
,,,0.1956,1.236
,,,0.196,1.236
,,,0.1964,1.228
,,,0.1968,1.232
,,,0.1972,1.228
,,,0.1976,1.232
,,,0.198,1.232
,,,0.1984,1.228
,,,0.1988,1.228
,,,0.1992,1.228
,,,0.1996,1.228
,,,0.2,1.232
,,,0.2004,1.232
,,,0.2008,1.232
,,,0.2012,1.232
,,,0.2016,1.228
,,,0.202,1.236
,,,0.2024,1.236
,,,0.2028,1.232
,,,0.2032,1.236
,,,0.2036,1.24
,,,0.204,1.236
,,,0.2044,1.236
,,,0.2048,1.24
,,,0.2052,1.236
,,,0.2056,1.236
,,,0.206,1.24
,,,0.2064,1.24
,,,0.2068,1.236
,,,0.2072,1.248
,,,0.2076,1.244
,,,0.208,1.244
,,,0.2084,1.24
,,,0.2088,1.244
,,,0.2092,1.244
,,,0.2096,1.248
,,,0.21,1.244
,,,0.2104,1.256
,,,0.2108,1.252
,,,0.2112,1.248
,,,0.2116,1.248
,,,0.212,1.248
,,,0.2124,1.252
,,,0.2128,1.252
,,,0.2132,1.256
,,,0.2136,1.252
,,,0.214,1.252
,,,0.2144,1.256
,,,0.2148,1.256
,,,0.2152,1.256
,,,0.2156,1.26
,,,0.216,1.252
,,,0.2164,1.26
,,,0.2168,1.248
,,,0.2172,1.256
,,,0.2176,1.256
,,,0.218,1.256
,,,0.2184,1.256
,,,0.2188,1.268
,,,0.2192,1.264
,,,0.2196,1.268
,,,0.22,1.264
,,,0.2204,1.26
,,,0.2208,1.28
,,,0.2212,1.28
,,,0.2216,1.24
,,,0.222,1.2
,,,0.2224,1.176
,,,0.2228,1.132
,,,0.2232,1.144
,,,0.2236,1.188
,,,0.224,1.244
,,,0.2244,1.36
,,,0.2248,1.508
,,,0.2252,1.58
,,,0.2256,1.644
,,,0.226,1.732
,,,0.2264,1.736
,,,0.2268,1.708
,,,0.2272,1.692
,,,0.2276,1.636
,,,0.228,1.544
,,,0.2284,1.48
,,,0.2288,1.4
,,,0.2292,1.32
,,,0.2296,1.28
,,,0.23,1.264
,,,0.2304,1.228
,,,0.2308,1.256
,,,0.2312,1.268
,,,0.2316,1.252
,,,0.232,1.26
,,,0.2324,1.256
,,,0.2328,1.212
,,,0.2332,1.188
,,,0.2336,1.168
,,,0.234,1.124
,,,0.2344,1.1
,,,0.2348,1.092
,,,0.2352,1.052
,,,0.2356,1.032
,,,0.236,1.028
,,,0.2364,1.008
,,,0.2368,0.984
,,,0.2372,0.996
,,,0.2376,0.992
,,,0.238,0.992
,,,0.2384,1.004
,,,0.2388,1.016
,,,0.2392,1.004
,,,0.2396,1.028
,,,0.24,1.048
,,,0.2404,1.048
,,,0.2408,1.08
,,,0.2412,1.108
,,,0.2416,1.124
,,,0.242,1.164
,,,0.2424,1.196
,,,0.2428,1.216
,,,0.2432,1.236
,,,0.2436,1.284
,,,0.244,1.292
,,,0.2444,1.316
,,,0.2448,1.34
,,,0.2452,1.368
,,,0.2456,1.384
,,,0.246,1.412
,,,0.2464,1.412
,,,0.2468,1.432
,,,0.2472,1.444
,,,0.2476,1.448
,,,0.248,1.444
,,,0.2484,1.456
,,,0.2488,1.456
,,,0.2492,1.448
,,,0.2496,1.448
,,,0.25,1.444
,,,0.2504,1.424
,,,0.2508,1.412
,,,0.2512,1.388
,,,0.2516,1.376
,,,0.252,1.352
,,,0.2524,1.328
,,,0.2528,1.296
,,,0.2532,1.276
,,,0.2536,1.248
,,,0.254,1.216
,,,0.2544,1.192
,,,0.2548,1.164
,,,0.2552,1.136
,,,0.2556,1.116
,,,0.256,1.1
,,,0.2564,1.072
,,,0.2568,1.056
,,,0.2572,1.044
,,,0.2576,1.024
,,,0.258,1.02
,,,0.2584,1.012
,,,0.2588,1.008
,,,0.2592,1.004
,,,0.2596,1.012
,,,0.26,1.02
,,,0.2604,1.028
,,,0.2608,1.044
,,,0.2612,1.06
,,,0.2616,1.068
,,,0.262,1.096
,,,0.2624,1.112
,,,0.2628,1.132
,,,0.2632,1.16
,,,0.2636,1.176
,,,0.264,1.196
,,,0.2644,1.228
,,,0.2648,1.244
,,,0.2652,1.268
,,,0.2656,1.3
,,,0.266,1.324
,,,0.2664,1.34
,,,0.2668,1.36
,,,0.2672,1.384
,,,0.2676,1.4
,,,0.268,1.412
,,,0.2684,1.42
,,,0.2688,1.432
,,,0.2692,1.44
,,,0.2696,1.444
,,,0.27,1.436
,,,0.2704,1.44
,,,0.2708,1.432
,,,0.2712,1.416
,,,0.2716,1.412
,,,0.272,1.396
,,,0.2724,1.384
,,,0.2728,1.36
,,,0.2732,1.344
,,,0.2736,1.324
,,,0.274,1.304
,,,0.2744,1.288
,,,0.2748,1.256
,,,0.2752,1.232
,,,0.2756,1.212
,,,0.276,1.188
,,,0.2764,1.164
,,,0.2768,1.144
,,,0.2772,1.124
,,,0.2776,1.108
,,,0.278,1.084
,,,0.2784,1.072
,,,0.2788,1.056
,,,0.2792,1.04
,,,0.2796,1.04
,,,0.28,1.028
,,,0.2804,1.032
,,,0.2808,1.036
,,,0.2812,1.032
,,,0.2816,1.036
,,,0.282,1.048
,,,0.2824,1.068
,,,0.2828,1.076
,,,0.2832,1.088
,,,0.2836,1.112
,,,0.284,1.128
,,,0.2844,1.152
,,,0.2848,1.172
,,,0.2852,1.188
,,,0.2856,1.212
,,,0.286,1.232
,,,0.2864,1.264
,,,0.2868,1.288
,,,0.2872,1.304
,,,0.2876,1.32
,,,0.288,1.344
,,,0.2884,1.36
,,,0.2888,1.372
,,,0.2892,1.388
,,,0.2896,1.396
,,,0.29,1.408
,,,0.2904,1.416
,,,0.2908,1.424
,,,0.2912,1.424
,,,0.2916,1.412
,,,0.292,1.416
,,,0.2924,1.412
,,,0.2928,1.396
,,,0.2932,1.392
,,,0.2936,1.372
,,,0.294,1.36
,,,0.2944,1.348
,,,0.2948,1.324
,,,0.2952,1.308
,,,0.2956,1.292
,,,0.296,1.268
,,,0.2964,1.248
,,,0.2968,1.228
,,,0.2972,1.2
,,,0.2976,1.18
,,,0.298,1.16
,,,0.2984,1.144
,,,0.2988,1.12
,,,0.2992,1.112
,,,0.2996,1.092
,,,0.3,1.08
,,,0.3004,1.068
,,,0.3008,1.06
,,,0.3012,1.06
,,,0.3016,1.052
,,,0.302,1.048
,,,0.3024,1.052
,,,0.3028,1.06
,,,0.3032,1.064
,,,0.3036,1.076
,,,0.304,1.088
,,,0.3044,1.1
,,,0.3048,1.108
,,,0.3052,1.132
,,,0.3056,1.152
,,,0.306,1.164
,,,0.3064,1.192
,,,0.3068,1.212
,,,0.3072,1.236
,,,0.3076,1.252
,,,0.308,1.276
,,,0.3084,1.296
,,,0.3088,1.308
,,,0.3092,1.328
,,,0.3096,1.344
,,,0.31,1.352
,,,0.3104,1.368
,,,0.3108,1.38
,,,0.3112,1.392
,,,0.3116,1.396
,,,0.312,1.408
,,,0.3124,1.396
,,,0.3128,1.408
,,,0.3132,1.404
,,,0.3136,1.4
,,,0.314,1.388
,,,0.3144,1.38
,,,0.3148,1.368
,,,0.3152,1.364
,,,0.3156,1.344
,,,0.316,1.328
,,,0.3164,1.312
,,,0.3168,1.288
,,,0.3172,1.272
,,,0.3176,1.252
,,,0.318,1.228
,,,0.3184,1.212
,,,0.3188,1.188
,,,0.3192,1.168
,,,0.3196,1.156
,,,0.32,1.128
,,,0.3204,1.112
,,,0.3208,1.108
,,,0.3212,1.088
,,,0.3216,1.088
,,,0.322,1.076
,,,0.3224,1.068
,,,0.3228,1.064
,,,0.3232,1.068
,,,0.3236,1.068
,,,0.324,1.064
,,,0.3244,1.08
,,,0.3248,1.084
,,,0.3252,1.092
,,,0.3256,1.1
,,,0.326,1.116
,,,0.3264,1.132
,,,0.3268,1.144
,,,0.3272,1.164
,,,0.3276,1.18
,,,0.328,1.2
,,,0.3284,1.22
,,,0.3288,1.24
,,,0.3292,1.264
,,,0.3296,1.28
,,,0.33,1.296
,,,0.3304,1.316
,,,0.3308,1.324
,,,0.3312,1.352
,,,0.3316,1.36
,,,0.332,1.372
,,,0.3324,1.372
,,,0.3328,1.38
,,,0.3332,1.384
,,,0.3336,1.384
,,,0.334,1.392
,,,0.3344,1.396
,,,0.3348,1.392
,,,0.3352,1.384
,,,0.3356,1.372
,,,0.336,1.36
,,,0.3364,1.352
,,,0.3368,1.34
,,,0.3372,1.328
,,,0.3376,1.312
,,,0.338,1.292
,,,0.3384,1.276
,,,0.3388,1.26
,,,0.3392,1.24
,,,0.3396,1.216
,,,0.34,1.204
,,,0.3404,1.188
,,,0.3408,1.168
,,,0.3412,1.156
,,,0.3416,1.14
,,,0.342,1.116
,,,0.3424,1.112
,,,0.3428,1.096
,,,0.3432,1.084
,,,0.3436,1.084
,,,0.344,1.072
,,,0.3444,1.08
,,,0.3448,1.076
,,,0.3452,1.08
,,,0.3456,1.08
,,,0.346,1.092
,,,0.3464,1.1
,,,0.3468,1.108
,,,0.3472,1.12
,,,0.3476,1.132
,,,0.348,1.148
,,,0.3484,1.164
,,,0.3488,1.176
,,,0.3492,1.208
,,,0.3496,1.22
,,,0.35,1.236
,,,0.3504,1.252
,,,0.3508,1.268
,,,0.3512,1.288
,,,0.3516,1.304
,,,0.352,1.316
,,,0.3524,1.332
,,,0.3528,1.348
,,,0.3532,1.356
,,,0.3536,1.36
,,,0.354,1.372
,,,0.3544,1.368
,,,0.3548,1.38
,,,0.3552,1.38
,,,0.3556,1.38
,,,0.356,1.38
,,,0.3564,1.372
,,,0.3568,1.364
,,,0.3572,1.356
,,,0.3576,1.344
,,,0.358,1.336
,,,0.3584,1.316
,,,0.3588,1.312
,,,0.3592,1.292
,,,0.3596,1.28
,,,0.36,1.26
,,,0.3604,1.244
,,,0.3608,1.224
,,,0.3612,1.212
,,,0.3616,1.196
,,,0.362,1.184
,,,0.3624,1.164
,,,0.3628,1.148
,,,0.3632,1.132
,,,0.3636,1.124
,,,0.364,1.116
,,,0.3644,1.108
,,,0.3648,1.096
,,,0.3652,1.096
,,,0.3656,1.092
,,,0.366,1.092
,,,0.3664,1.088
,,,0.3668,1.1
,,,0.3672,1.1
,,,0.3676,1.108
,,,0.368,1.116
,,,0.3684,1.128
,,,0.3688,1.14
,,,0.3692,1.148
,,,0.3696,1.164
,,,0.37,1.18
,,,0.3704,1.196
,,,0.3708,1.216
,,,0.3712,1.228
,,,0.3716,1.248
,,,0.372,1.26
,,,0.3724,1.28
,,,0.3728,1.296
,,,0.3732,1.3
,,,0.3736,1.324
,,,0.374,1.332
,,,0.3744,1.336
,,,0.3748,1.352
,,,0.3752,1.36
,,,0.3756,1.364
,,,0.376,1.372
,,,0.3764,1.368
,,,0.3768,1.368
,,,0.3772,1.368
,,,0.3776,1.356
,,,0.378,1.352
,,,0.3784,1.348
,,,0.3788,1.344
,,,0.3792,1.332
,,,0.3796,1.32
,,,0.38,1.304
,,,0.3804,1.288
,,,0.3808,1.276
,,,0.3812,1.26
,,,0.3816,1.244
,,,0.382,1.232
,,,0.3824,1.216
,,,0.3828,1.196
,,,0.3832,1.18
,,,0.3836,1.168
,,,0.384,1.16
,,,0.3844,1.144
,,,0.3848,1.132
,,,0.3852,1.128
,,,0.3856,1.12
,,,0.386,1.112
,,,0.3864,1.112
,,,0.3868,1.1
,,,0.3872,1.104
,,,0.3876,1.104
,,,0.388,1.104
,,,0.3884,1.112
,,,0.3888,1.116
,,,0.3892,1.124
,,,0.3896,1.132
,,,0.39,1.144
,,,0.3904,1.156
,,,0.3908,1.18
,,,0.3912,1.18
,,,0.3916,1.2
,,,0.392,1.204
,,,0.3924,1.224
,,,0.3928,1.244
,,,0.3932,1.248
,,,0.3936,1.276
,,,0.394,1.284
,,,0.3944,1.296
,,,0.3948,1.308
,,,0.3952,1.324
,,,0.3956,1.328
,,,0.396,1.344
,,,0.3964,1.352
,,,0.3968,1.352
,,,0.3972,1.352
,,,0.3976,1.352
,,,0.398,1.356
,,,0.3984,1.356
,,,0.3988,1.352
,,,0.3992,1.344
,,,0.3996,1.336
,,,0.4,1.34
,,,0.4004,1.32
,,,0.4008,1.312
,,,0.4012,1.3
,,,0.4016,1.296
,,,0.402,1.276
,,,0.4024,1.26
,,,0.4028,1.248
,,,0.4032,1.236
,,,0.4036,1.22
,,,0.404,1.204
,,,0.4044,1.188
,,,0.4048,1.176
,,,0.4052,1.164
,,,0.4056,1.156
,,,0.406,1.136
,,,0.4064,1.124
,,,0.4068,1.132
,,,0.4072,1.124
,,,0.4076,1.112
,,,0.408,1.112
,,,0.4084,1.108
,,,0.4088,1.108
,,,0.4092,1.112
,,,0.4096,1.128
,,,0.41,1.124
,,,0.4104,1.132
,,,0.4108,1.136
,,,0.4112,1.148
,,,0.4116,1.156
,,,0.412,1.164
,,,0.4124,1.18
,,,0.4128,1.204
,,,0.4132,1.208
,,,0.4136,1.224
,,,0.414,1.232
,,,0.4144,1.248
,,,0.4148,1.26
,,,0.4152,1.28
,,,0.4156,1.292
,,,0.416,1.3
,,,0.4164,1.312
,,,0.4168,1.324
,,,0.4172,1.332
,,,0.4176,1.332
,,,0.418,1.344
,,,0.4184,1.34
,,,0.4188,1.344
,,,0.4192,1.344
,,,0.4196,1.336
,,,0.42,1.344
,,,0.4204,1.336
,,,0.4208,1.328
,,,0.4212,1.324
,,,0.4216,1.32
,,,0.422,1.308
,,,0.4224,1.296
,,,0.4228,1.28
,,,0.4232,1.276
,,,0.4236,1.252
,,,0.424,1.252
,,,0.4244,1.236
,,,0.4248,1.224
,,,0.4252,1.208
,,,0.4256,1.192
,,,0.426,1.176
,,,0.4264,1.168
,,,0.4268,1.164
,,,0.4272,1.152
,,,0.4276,1.148
,,,0.428,1.132
,,,0.4284,1.124
,,,0.4288,1.128
,,,0.4292,1.124
,,,0.4296,1.12
,,,0.43,1.116
,,,0.4304,1.124
,,,0.4308,1.128
,,,0.4312,1.136
,,,0.4316,1.136
,,,0.432,1.144
,,,0.4324,1.156
,,,0.4328,1.164
,,,0.4332,1.164
,,,0.4336,1.184
,,,0.434,1.192
,,,0.4344,1.204
,,,0.4348,1.224
,,,0.4352,1.232
,,,0.4356,1.244
,,,0.436,1.26
,,,0.4364,1.268
,,,0.4368,1.288
,,,0.4372,1.288
,,,0.4376,1.304
,,,0.438,1.312
,,,0.4384,1.32
,,,0.4388,1.32
,,,0.4392,1.328
,,,0.4396,1.328
,,,0.44,1.332
,,,0.4404,1.34
,,,0.4408,1.336
,,,0.4412,1.336
,,,0.4416,1.328
,,,0.442,1.328
,,,0.4424,1.32
,,,0.4428,1.316
,,,0.4432,1.308
,,,0.4436,1.296
,,,0.444,1.276
,,,0.4444,1.272
,,,0.4448,1.264
,,,0.4452,1.244
,,,0.4456,1.236
,,,0.446,1.224
,,,0.4464,1.208
,,,0.4468,1.196
,,,0.4472,1.192
,,,0.4476,1.172
,,,0.448,1.168
,,,0.4484,1.156
,,,0.4488,1.152
,,,0.4492,1.144
,,,0.4496,1.14
,,,0.45,1.144
,,,0.4504,1.128
,,,0.4508,1.128
,,,0.4512,1.128
,,,0.4516,1.132
,,,0.452,1.132
,,,0.4524,1.136
,,,0.4528,1.144
,,,0.4532,1.152
,,,0.4536,1.152
,,,0.454,1.164
,,,0.4544,1.176
,,,0.4548,1.188
,,,0.4552,1.192
,,,0.4556,1.212
,,,0.456,1.216
,,,0.4564,1.228
,,,0.4568,1.24
,,,0.4572,1.252
,,,0.4576,1.268
,,,0.458,1.272
,,,0.4584,1.284
,,,0.4588,1.296
,,,0.4592,1.3
,,,0.4596,1.308
,,,0.46,1.316
,,,0.4604,1.32
,,,0.4608,1.324
,,,0.4612,1.32
,,,0.4616,1.328
,,,0.462,1.332
,,,0.4624,1.324
,,,0.4628,1.316
,,,0.4632,1.316
,,,0.4636,1.312
,,,0.464,1.304
,,,0.4644,1.296
,,,0.4648,1.288
,,,0.4652,1.28
,,,0.4656,1.272
,,,0.466,1.272
,,,0.4664,1.252
,,,0.4668,1.236
,,,0.4672,1.232
,,,0.4676,1.216
,,,0.468,1.2
,,,0.4684,1.192
,,,0.4688,1.192
,,,0.4692,1.176
,,,0.4696,1.164
,,,0.47,1.16
,,,0.4704,1.144
,,,0.4708,1.144
,,,0.4712,1.14
,,,0.4716,1.136
,,,0.472,1.132
,,,0.4724,1.14
,,,0.4728,1.132
,,,0.4732,1.14
,,,0.4736,1.136
,,,0.474,1.152
,,,0.4744,1.152
,,,0.4748,1.16
,,,0.4752,1.164
,,,0.4756,1.172
,,,0.476,1.184
,,,0.4764,1.192
,,,0.4768,1.204
,,,0.4772,1.22
,,,0.4776,1.228
,,,0.478,1.244
,,,0.4784,1.248
,,,0.4788,1.26
,,,0.4792,1.264
,,,0.4796,1.28
,,,0.48,1.284
,,,0.4804,1.296
,,,0.4808,1.304
,,,0.4812,1.304
,,,0.4816,1.308
,,,0.482,1.316
,,,0.4824,1.32
,,,0.4828,1.316
,,,0.4832,1.316
,,,0.4836,1.312
,,,0.484,1.312
,,,0.4844,1.316
,,,0.4848,1.308
,,,0.4852,1.3
,,,0.4856,1.296
,,,0.486,1.296
,,,0.4864,1.28
,,,0.4868,1.264
,,,0.4872,1.264
,,,0.4876,1.252
,,,0.488,1.24
,,,0.4884,1.232
,,,0.4888,1.22
,,,0.4892,1.208
,,,0.4896,1.2
,,,0.49,1.188
,,,0.4904,1.184
,,,0.4908,1.18
,,,0.4912,1.16
,,,0.4916,1.156
,,,0.492,1.156
,,,0.4924,1.148
,,,0.4928,1.144
,,,0.4932,1.144
,,,0.4936,1.136
,,,0.494,1.144
,,,0.4944,1.144
,,,0.4948,1.148
,,,0.4952,1.152
,,,0.4956,1.16
,,,0.496,1.164
,,,0.4964,1.172
,,,0.4968,1.176
,,,0.4972,1.188
,,,0.4976,1.204
,,,0.498,1.204
,,,0.4984,1.216
,,,0.4988,1.224
,,,0.4992,1.24
,,,0.4996,1.244
,,,0.5,1.256
,,,0.5004,1.256
,,,0.5008,1.272
,,,0.5012,1.28
,,,0.5016,1.288
,,,0.502,1.292
,,,0.5024,1.296
,,,0.5028,1.308
,,,0.5032,1.308
,,,0.5036,1.308
,,,0.504,1.312
,,,0.5044,1.308
,,,0.5048,1.316
,,,0.5052,1.308
,,,0.5056,1.3
