Balsa Trust Testing/2-Lat-noMass/F0001CH1.CSV

Record Length,2.50E+03,,-0.25,1.3
Sample Interval,2.00E-04,,-0.2498,1.288
Trigger Point,1.25E+03,,-0.2496,1.284
,,,-0.2494,1.284
,,,-0.2492,1.272
,,,-0.249,1.26
Source,CH1,,-0.2488,1.248
Vertical Units,V,,-0.2486,1.244
Vertical Scale,1.00E-01,,-0.2484,1.24
Vertical Offset,-1.23E+00,,-0.2482,1.232
Horizontal Units,s,,-0.248,1.22
Horizontal Scale,5.00E-02,,-0.2478,1.208
Pt Fmt,Y,,-0.2476,1.204
Yzero,0.00E+00,,-0.2474,1.196
Probe Atten,1.00E+00,,-0.2472,1.192
Model Number,TDS2002B,,-0.247,1.188
Serial Number,C100707,,-0.2468,1.176
Firmware Version,FV:v22.01,,-0.2466,1.168
,,,-0.2464,1.164
,,,-0.2462,1.152
,,,-0.246,1.148
,,,-0.2458,1.14
,,,-0.2456,1.136
,,,-0.2454,1.128
,,,-0.2452,1.128
,,,-0.245,1.124
,,,-0.2448,1.12
,,,-0.2446,1.108
,,,-0.2444,1.104
,,,-0.2442,1.108
,,,-0.244,1.104
,,,-0.2438,1.108
,,,-0.2436,1.104
,,,-0.2434,1.096
,,,-0.2432,1.096
,,,-0.243,1.096
,,,-0.2428,1.096
,,,-0.2426,1.104
,,,-0.2424,1.1
,,,-0.2422,1.1
,,,-0.242,1.104
,,,-0.2418,1.108
,,,-0.2416,1.104
,,,-0.2414,1.112
,,,-0.2412,1.12
,,,-0.241,1.12
,,,-0.2408,1.124
,,,-0.2406,1.128
,,,-0.2404,1.136
,,,-0.2402,1.136
,,,-0.24,1.144
,,,-0.2398,1.144
,,,-0.2396,1.156
,,,-0.2394,1.164
,,,-0.2392,1.172
,,,-0.239,1.18
,,,-0.2388,1.184
,,,-0.2386,1.188
,,,-0.2384,1.196
,,,-0.2382,1.208
,,,-0.238,1.216
,,,-0.2378,1.224
,,,-0.2376,1.24
,,,-0.2374,1.24
,,,-0.2372,1.248
,,,-0.237,1.256
,,,-0.2368,1.264
,,,-0.2366,1.272
,,,-0.2364,1.272
,,,-0.2362,1.284
,,,-0.236,1.292
,,,-0.2358,1.304
,,,-0.2356,1.308
,,,-0.2354,1.308
,,,-0.2352,1.312
,,,-0.235,1.328
,,,-0.2348,1.336
,,,-0.2346,1.336
,,,-0.2344,1.336
,,,-0.2342,1.34
,,,-0.234,1.348
,,,-0.2338,1.344
,,,-0.2336,1.352
,,,-0.2334,1.352
,,,-0.2332,1.36
,,,-0.233,1.356
,,,-0.2328,1.356
,,,-0.2326,1.356
,,,-0.2324,1.356
,,,-0.2322,1.356
,,,-0.232,1.356
,,,-0.2318,1.368
,,,-0.2316,1.36
,,,-0.2314,1.356
,,,-0.2312,1.352
,,,-0.231,1.352
,,,-0.2308,1.344
,,,-0.2306,1.344
,,,-0.2304,1.344
,,,-0.2302,1.332
,,,-0.23,1.332
,,,-0.2298,1.328
,,,-0.2296,1.324
,,,-0.2294,1.32
,,,-0.2292,1.312
,,,-0.229,1.308
,,,-0.2288,1.296
,,,-0.2286,1.292
,,,-0.2284,1.288
,,,-0.2282,1.28
,,,-0.228,1.272
,,,-0.2278,1.264
,,,-0.2276,1.264
,,,-0.2274,1.244
,,,-0.2272,1.244
,,,-0.227,1.232
,,,-0.2268,1.228
,,,-0.2266,1.224
,,,-0.2264,1.216
,,,-0.2262,1.204
,,,-0.226,1.196
,,,-0.2258,1.192
,,,-0.2256,1.188
,,,-0.2254,1.18
,,,-0.2252,1.168
,,,-0.225,1.168
,,,-0.2248,1.164
,,,-0.2246,1.156
,,,-0.2244,1.152
,,,-0.2242,1.144
,,,-0.224,1.14
,,,-0.2238,1.136
,,,-0.2236,1.136
,,,-0.2234,1.128
,,,-0.2232,1.12
,,,-0.223,1.12
,,,-0.2228,1.116
,,,-0.2226,1.116
,,,-0.2224,1.112
,,,-0.2222,1.112
,,,-0.222,1.108
,,,-0.2218,1.112
,,,-0.2216,1.108
,,,-0.2214,1.112
,,,-0.2212,1.108
,,,-0.221,1.112
,,,-0.2208,1.108
,,,-0.2206,1.112
,,,-0.2204,1.116
,,,-0.2202,1.12
,,,-0.22,1.124
,,,-0.2198,1.128
,,,-0.2196,1.124
,,,-0.2194,1.132
,,,-0.2192,1.144
,,,-0.219,1.144
,,,-0.2188,1.152
,,,-0.2186,1.152
,,,-0.2184,1.156
,,,-0.2182,1.164
,,,-0.218,1.176
,,,-0.2178,1.18
,,,-0.2176,1.18
,,,-0.2174,1.192
,,,-0.2172,1.2
,,,-0.217,1.212
,,,-0.2168,1.216
,,,-0.2166,1.224
,,,-0.2164,1.228
,,,-0.2162,1.232
,,,-0.216,1.24
,,,-0.2158,1.252
,,,-0.2156,1.26
,,,-0.2154,1.264
,,,-0.2152,1.272
,,,-0.215,1.28
,,,-0.2148,1.288
,,,-0.2146,1.288
,,,-0.2144,1.296
,,,-0.2142,1.3
,,,-0.214,1.308
,,,-0.2138,1.312
,,,-0.2136,1.316
,,,-0.2134,1.32
,,,-0.2132,1.324
,,,-0.213,1.336
,,,-0.2128,1.34
,,,-0.2126,1.344
,,,-0.2124,1.344
,,,-0.2122,1.344
,,,-0.212,1.348
,,,-0.2118,1.348
,,,-0.2116,1.352
,,,-0.2114,1.344
,,,-0.2112,1.348
,,,-0.211,1.352
,,,-0.2108,1.344
,,,-0.2106,1.344
,,,-0.2104,1.344
,,,-0.2102,1.344
,,,-0.21,1.344
,,,-0.2098,1.344
,,,-0.2096,1.34
,,,-0.2094,1.336
,,,-0.2092,1.336
,,,-0.209,1.328
,,,-0.2088,1.32
,,,-0.2086,1.328
,,,-0.2084,1.312
,,,-0.2082,1.316
,,,-0.208,1.308
,,,-0.2078,1.3
,,,-0.2076,1.296
,,,-0.2074,1.288
,,,-0.2072,1.284
,,,-0.207,1.284
,,,-0.2068,1.28
,,,-0.2066,1.272
,,,-0.2064,1.264
,,,-0.2062,1.256
,,,-0.206,1.252
,,,-0.2058,1.244
,,,-0.2056,1.236
,,,-0.2054,1.228
,,,-0.2052,1.224
,,,-0.205,1.212
,,,-0.2048,1.208
,,,-0.2046,1.2
,,,-0.2044,1.196
,,,-0.2042,1.192
,,,-0.204,1.18
,,,-0.2038,1.172
,,,-0.2036,1.176
,,,-0.2034,1.164
,,,-0.2032,1.16
,,,-0.203,1.16
,,,-0.2028,1.148
,,,-0.2026,1.144
,,,-0.2024,1.14
,,,-0.2022,1.132
,,,-0.202,1.136
,,,-0.2018,1.128
,,,-0.2016,1.128
,,,-0.2014,1.124
,,,-0.2012,1.12
,,,-0.201,1.116
,,,-0.2008,1.116
,,,-0.2006,1.112
,,,-0.2004,1.124
,,,-0.2002,1.12
,,,-0.2,1.12
,,,-0.1998,1.12
,,,-0.1996,1.124
,,,-0.1994,1.124
,,,-0.1992,1.128
,,,-0.199,1.128
,,,-0.1988,1.14
,,,-0.1986,1.128
,,,-0.1984,1.136
,,,-0.1982,1.136
,,,-0.198,1.144
,,,-0.1978,1.144
,,,-0.1976,1.148
,,,-0.1974,1.156
,,,-0.1972,1.164
,,,-0.197,1.168
,,,-0.1968,1.168
,,,-0.1966,1.18
,,,-0.1964,1.184
,,,-0.1962,1.196
,,,-0.196,1.2
,,,-0.1958,1.204
,,,-0.1956,1.212
,,,-0.1954,1.22
,,,-0.1952,1.228
,,,-0.195,1.236
,,,-0.1948,1.24
,,,-0.1946,1.24
,,,-0.1944,1.252
,,,-0.1942,1.264
,,,-0.194,1.268
,,,-0.1938,1.268
,,,-0.1936,1.276
,,,-0.1934,1.284
,,,-0.1932,1.288
,,,-0.193,1.296
,,,-0.1928,1.3
,,,-0.1926,1.296
,,,-0.1924,1.304
,,,-0.1922,1.312
,,,-0.192,1.32
,,,-0.1918,1.324
,,,-0.1916,1.324
,,,-0.1914,1.328
,,,-0.1912,1.328
,,,-0.191,1.332
,,,-0.1908,1.332
,,,-0.1906,1.34
,,,-0.1904,1.34
,,,-0.1902,1.34
,,,-0.19,1.34
,,,-0.1898,1.344
,,,-0.1896,1.344
,,,-0.1894,1.348
,,,-0.1892,1.34
,,,-0.189,1.344
,,,-0.1888,1.336
,,,-0.1886,1.336
,,,-0.1884,1.34
,,,-0.1882,1.332
,,,-0.188,1.328
,,,-0.1878,1.324
,,,-0.1876,1.324
,,,-0.1874,1.32
,,,-0.1872,1.316
,,,-0.187,1.312
,,,-0.1868,1.308
,,,-0.1866,1.304
,,,-0.1864,1.296
,,,-0.1862,1.288
,,,-0.186,1.28
,,,-0.1858,1.28
,,,-0.1856,1.272
,,,-0.1854,1.268
,,,-0.1852,1.264
,,,-0.185,1.26
,,,-0.1848,1.248
,,,-0.1846,1.244
,,,-0.1844,1.24
,,,-0.1842,1.236
,,,-0.184,1.224
,,,-0.1838,1.22
,,,-0.1836,1.216
,,,-0.1834,1.212
,,,-0.1832,1.208
,,,-0.183,1.192
,,,-0.1828,1.188
,,,-0.1826,1.18
,,,-0.1824,1.176
,,,-0.1822,1.176
,,,-0.182,1.172
,,,-0.1818,1.172
,,,-0.1816,1.16
,,,-0.1814,1.16
,,,-0.1812,1.152
,,,-0.181,1.148
,,,-0.1808,1.144
,,,-0.1806,1.144
,,,-0.1804,1.136
,,,-0.1802,1.136
,,,-0.18,1.128
,,,-0.1798,1.128
,,,-0.1796,1.128
,,,-0.1794,1.128
,,,-0.1792,1.132
,,,-0.179,1.128
,,,-0.1788,1.128
,,,-0.1786,1.128
,,,-0.1784,1.128
,,,-0.1782,1.14
,,,-0.178,1.132
,,,-0.1778,1.132
,,,-0.1776,1.14
,,,-0.1774,1.14
,,,-0.1772,1.144
,,,-0.177,1.14
,,,-0.1768,1.148
,,,-0.1766,1.152
,,,-0.1764,1.156
,,,-0.1762,1.16
,,,-0.176,1.164
,,,-0.1758,1.176
,,,-0.1756,1.172
,,,-0.1754,1.184
,,,-0.1752,1.188
,,,-0.175,1.192
,,,-0.1748,1.2
,,,-0.1746,1.204
,,,-0.1744,1.212
,,,-0.1742,1.216
,,,-0.174,1.216
,,,-0.1738,1.224
,,,-0.1736,1.236
,,,-0.1734,1.24
,,,-0.1732,1.244
,,,-0.173,1.252
,,,-0.1728,1.26
,,,-0.1726,1.26
,,,-0.1724,1.272
,,,-0.1722,1.28
,,,-0.172,1.28
,,,-0.1718,1.288
,,,-0.1716,1.288
,,,-0.1714,1.292
,,,-0.1712,1.296
,,,-0.171,1.304
,,,-0.1708,1.308
,,,-0.1706,1.312
,,,-0.1704,1.316
,,,-0.1702,1.316
,,,-0.17,1.316
,,,-0.1698,1.324
,,,-0.1696,1.328
,,,-0.1694,1.324
,,,-0.1692,1.324
,,,-0.169,1.328
,,,-0.1688,1.344
,,,-0.1686,1.336
,,,-0.1684,1.332
,,,-0.1682,1.328
,,,-0.168,1.332
,,,-0.1678,1.332
,,,-0.1676,1.324
,,,-0.1674,1.332
,,,-0.1672,1.328
,,,-0.167,1.324
,,,-0.1668,1.324
,,,-0.1666,1.32
,,,-0.1664,1.312
,,,-0.1662,1.312
,,,-0.166,1.312
,,,-0.1658,1.312
,,,-0.1656,1.304
,,,-0.1654,1.296
,,,-0.1652,1.296
,,,-0.165,1.288
,,,-0.1648,1.276
,,,-0.1646,1.272
,,,-0.1644,1.272
,,,-0.1642,1.268
,,,-0.164,1.264
,,,-0.1638,1.26
,,,-0.1636,1.248
,,,-0.1634,1.24
,,,-0.1632,1.236
,,,-0.163,1.228
,,,-0.1628,1.232
,,,-0.1626,1.22
,,,-0.1624,1.216
,,,-0.1622,1.208
,,,-0.162,1.204
,,,-0.1618,1.2
,,,-0.1616,1.192
,,,-0.1614,1.192
,,,-0.1612,1.184
,,,-0.161,1.18
,,,-0.1608,1.168
,,,-0.1606,1.168
,,,-0.1604,1.164
,,,-0.1602,1.164
,,,-0.16,1.16
,,,-0.1598,1.152
,,,-0.1596,1.148
,,,-0.1594,1.152
,,,-0.1592,1.148
,,,-0.159,1.144
,,,-0.1588,1.14
,,,-0.1586,1.136
,,,-0.1584,1.136
,,,-0.1582,1.132
,,,-0.158,1.132
,,,-0.1578,1.136
,,,-0.1576,1.136
,,,-0.1574,1.132
,,,-0.1572,1.14
,,,-0.157,1.144
,,,-0.1568,1.136
,,,-0.1566,1.144
,,,-0.1564,1.144
,,,-0.1562,1.148
,,,-0.156,1.152
,,,-0.1558,1.152
,,,-0.1556,1.156
,,,-0.1554,1.16
,,,-0.1552,1.16
,,,-0.155,1.164
,,,-0.1548,1.172
,,,-0.1546,1.176
,,,-0.1544,1.184
,,,-0.1542,1.18
,,,-0.154,1.184
,,,-0.1538,1.196
,,,-0.1536,1.204
,,,-0.1534,1.208
,,,-0.1532,1.212
,,,-0.153,1.216
,,,-0.1528,1.22
,,,-0.1526,1.224
,,,-0.1524,1.236
,,,-0.1522,1.236
,,,-0.152,1.236
,,,-0.1518,1.24
,,,-0.1516,1.252
,,,-0.1514,1.256
,,,-0.1512,1.264
,,,-0.151,1.268
,,,-0.1508,1.268
,,,-0.1506,1.276
,,,-0.1504,1.284
,,,-0.1502,1.284
,,,-0.15,1.292
,,,-0.1498,1.296
,,,-0.1496,1.3
,,,-0.1494,1.304
,,,-0.1492,1.308
,,,-0.149,1.312
,,,-0.1488,1.312
,,,-0.1486,1.312
,,,-0.1484,1.316
,,,-0.1482,1.324
,,,-0.148,1.32
,,,-0.1478,1.32
,,,-0.1476,1.328
,,,-0.1474,1.328
,,,-0.1472,1.332
,,,-0.147,1.32
,,,-0.1468,1.324
,,,-0.1466,1.328
,,,-0.1464,1.32
,,,-0.1462,1.32
,,,-0.146,1.316
,,,-0.1458,1.316
,,,-0.1456,1.316
,,,-0.1454,1.312
,,,-0.1452,1.312
,,,-0.145,1.308
,,,-0.1448,1.308
,,,-0.1446,1.3
,,,-0.1444,1.296
,,,-0.1442,1.296
,,,-0.144,1.292
,,,-0.1438,1.28
,,,-0.1436,1.28
,,,-0.1434,1.276
,,,-0.1432,1.272
,,,-0.143,1.268
,,,-0.1428,1.264
,,,-0.1426,1.252
,,,-0.1424,1.244
,,,-0.1422,1.244
,,,-0.142,1.24
,,,-0.1418,1.236
,,,-0.1416,1.224
,,,-0.1414,1.224
,,,-0.1412,1.216
,,,-0.141,1.216
,,,-0.1408,1.212
,,,-0.1406,1.208
,,,-0.1404,1.2
,,,-0.1402,1.196
,,,-0.14,1.192
,,,-0.1398,1.188
,,,-0.1396,1.18
,,,-0.1394,1.18
,,,-0.1392,1.176
,,,-0.139,1.172
,,,-0.1388,1.164
,,,-0.1386,1.164
,,,-0.1384,1.16
,,,-0.1382,1.16
,,,-0.138,1.156
,,,-0.1378,1.156
,,,-0.1376,1.156
,,,-0.1374,1.152
,,,-0.1372,1.152
,,,-0.137,1.148
,,,-0.1368,1.148
,,,-0.1366,1.148
,,,-0.1364,1.148
,,,-0.1362,1.144
,,,-0.136,1.148
,,,-0.1358,1.148
,,,-0.1356,1.152
,,,-0.1354,1.148
,,,-0.1352,1.148
,,,-0.135,1.148
,,,-0.1348,1.164
,,,-0.1346,1.156
,,,-0.1344,1.16
,,,-0.1342,1.164
,,,-0.134,1.168
,,,-0.1338,1.168
,,,-0.1336,1.172
,,,-0.1334,1.176
,,,-0.1332,1.18
,,,-0.133,1.184
,,,-0.1328,1.192
,,,-0.1326,1.196
,,,-0.1324,1.2
,,,-0.1322,1.204
,,,-0.132,1.208
,,,-0.1318,1.216
,,,-0.1316,1.22
,,,-0.1314,1.224
,,,-0.1312,1.228
,,,-0.131,1.232
,,,-0.1308,1.24
,,,-0.1306,1.248
,,,-0.1304,1.244
,,,-0.1302,1.252
,,,-0.13,1.264
,,,-0.1298,1.264
,,,-0.1296,1.268
,,,-0.1294,1.272
,,,-0.1292,1.28
,,,-0.129,1.284
,,,-0.1288,1.28
,,,-0.1286,1.288
,,,-0.1284,1.296
,,,-0.1282,1.292
,,,-0.128,1.304
,,,-0.1278,1.3
,,,-0.1276,1.304
,,,-0.1274,1.308
,,,-0.1272,1.312
,,,-0.127,1.312
,,,-0.1268,1.312
,,,-0.1266,1.312
,,,-0.1264,1.312
,,,-0.1262,1.316
,,,-0.126,1.32
,,,-0.1258,1.32
,,,-0.1256,1.32
,,,-0.1254,1.324
,,,-0.1252,1.312
,,,-0.125,1.316
,,,-0.1248,1.312
,,,-0.1246,1.312
,,,-0.1244,1.316
,,,-0.1242,1.308
,,,-0.124,1.304
,,,-0.1238,1.3
,,,-0.1236,1.304
,,,-0.1234,1.3
,,,-0.1232,1.296
,,,-0.123,1.296
,,,-0.1228,1.288
,,,-0.1226,1.28
,,,-0.1224,1.28
,,,-0.1222,1.276
,,,-0.122,1.272
,,,-0.1218,1.272
,,,-0.1216,1.268
,,,-0.1214,1.256
,,,-0.1212,1.256
,,,-0.121,1.248
,,,-0.1208,1.248
,,,-0.1206,1.232
,,,-0.1204,1.236
,,,-0.1202,1.228
,,,-0.12,1.224
,,,-0.1198,1.22
,,,-0.1196,1.22
,,,-0.1194,1.212
,,,-0.1192,1.2
,,,-0.119,1.204
,,,-0.1188,1.196
,,,-0.1186,1.192
,,,-0.1184,1.192
,,,-0.1182,1.184
,,,-0.118,1.18
,,,-0.1178,1.176
,,,-0.1176,1.172
,,,-0.1174,1.168
,,,-0.1172,1.164
,,,-0.117,1.164
,,,-0.1168,1.16
,,,-0.1166,1.16
,,,-0.1164,1.16
,,,-0.1162,1.156
,,,-0.116,1.16
,,,-0.1158,1.156
,,,-0.1156,1.152
,,,-0.1154,1.152
,,,-0.1152,1.156
,,,-0.115,1.156
,,,-0.1148,1.152
,,,-0.1146,1.152
,,,-0.1144,1.16
,,,-0.1142,1.16
,,,-0.114,1.16
,,,-0.1138,1.16
,,,-0.1136,1.156
,,,-0.1134,1.16
,,,-0.1132,1.164
,,,-0.113,1.168
,,,-0.1128,1.172
,,,-0.1126,1.172
,,,-0.1124,1.18
,,,-0.1122,1.176
,,,-0.112,1.18
,,,-0.1118,1.184
,,,-0.1116,1.196
,,,-0.1114,1.196
,,,-0.1112,1.2
,,,-0.111,1.196
,,,-0.1108,1.208
,,,-0.1106,1.216
,,,-0.1104,1.22
,,,-0.1102,1.224
,,,-0.11,1.228
,,,-0.1098,1.236
,,,-0.1096,1.236
,,,-0.1094,1.244
,,,-0.1092,1.248
,,,-0.109,1.252
,,,-0.1088,1.26
,,,-0.1086,1.26
,,,-0.1084,1.264
,,,-0.1082,1.268
,,,-0.108,1.272
,,,-0.1078,1.276
,,,-0.1076,1.276
,,,-0.1074,1.284
,,,-0.1072,1.288
,,,-0.107,1.288
,,,-0.1068,1.292
,,,-0.1066,1.304
,,,-0.1064,1.3
,,,-0.1062,1.304
,,,-0.106,1.304
,,,-0.1058,1.308
,,,-0.1056,1.308
,,,-0.1054,1.308
,,,-0.1052,1.308
,,,-0.105,1.312
,,,-0.1048,1.312
,,,-0.1046,1.312
,,,-0.1044,1.308
,,,-0.1042,1.308
,,,-0.104,1.312
,,,-0.1038,1.312
,,,-0.1036,1.312
,,,-0.1034,1.304
,,,-0.1032,1.304
,,,-0.103,1.304
,,,-0.1028,1.3
,,,-0.1026,1.304
,,,-0.1024,1.296
,,,-0.1022,1.296
,,,-0.102,1.292
,,,-0.1018,1.284
,,,-0.1016,1.284
,,,-0.1014,1.28
,,,-0.1012,1.28
,,,-0.101,1.276
,,,-0.1008,1.268
,,,-0.1006,1.264
,,,-0.1004,1.26
,,,-0.1002,1.26
,,,-0.1,1.248
,,,-0.0998,1.248
,,,-0.0996,1.24
,,,-0.0994,1.236
,,,-0.0992,1.232
,,,-0.099,1.232
,,,-0.0988,1.224
,,,-0.0986,1.224
,,,-0.0984,1.212
,,,-0.0982,1.212
,,,-0.098,1.208
,,,-0.0978,1.208
,,,-0.0976,1.2
,,,-0.0974,1.196
,,,-0.0972,1.188
,,,-0.097,1.188
,,,-0.0968,1.188
,,,-0.0966,1.18
,,,-0.0964,1.176
,,,-0.0962,1.172
,,,-0.096,1.172
,,,-0.0958,1.168
,,,-0.0956,1.16
,,,-0.0954,1.164
,,,-0.0952,1.164
,,,-0.095,1.164
,,,-0.0948,1.164
,,,-0.0946,1.16
,,,-0.0944,1.152
,,,-0.0942,1.164
,,,-0.094,1.16
,,,-0.0938,1.16
,,,-0.0936,1.16
,,,-0.0934,1.156
,,,-0.0932,1.164
,,,-0.093,1.16
,,,-0.0928,1.164
,,,-0.0926,1.16
,,,-0.0924,1.16
,,,-0.0922,1.164
,,,-0.092,1.168
,,,-0.0918,1.168
,,,-0.0916,1.172
,,,-0.0914,1.176
,,,-0.0912,1.184
,,,-0.091,1.184
,,,-0.0908,1.188
,,,-0.0906,1.192
,,,-0.0904,1.192
,,,-0.0902,1.2
,,,-0.09,1.2
,,,-0.0898,1.204
,,,-0.0896,1.212
,,,-0.0894,1.212
,,,-0.0892,1.22
,,,-0.089,1.224
,,,-0.0888,1.224
,,,-0.0886,1.228
,,,-0.0884,1.232
,,,-0.0882,1.24
,,,-0.088,1.244
,,,-0.0878,1.252
,,,-0.0876,1.252
,,,-0.0874,1.252
,,,-0.0872,1.264
,,,-0.087,1.264
,,,-0.0868,1.268
,,,-0.0866,1.276
,,,-0.0864,1.276
,,,-0.0862,1.276
,,,-0.086,1.276
,,,-0.0858,1.28
,,,-0.0856,1.292
,,,-0.0854,1.288
,,,-0.0852,1.296
,,,-0.085,1.296
,,,-0.0848,1.296
,,,-0.0846,1.296
,,,-0.0844,1.304
,,,-0.0842,1.304
,,,-0.084,1.304
,,,-0.0838,1.308
,,,-0.0836,1.304
,,,-0.0834,1.304
,,,-0.0832,1.3
,,,-0.083,1.3
,,,-0.0828,1.3
,,,-0.0826,1.308
,,,-0.0824,1.304
,,,-0.0822,1.296
,,,-0.082,1.296
,,,-0.0818,1.296
,,,-0.0816,1.304
,,,-0.0814,1.296
,,,-0.0812,1.296
,,,-0.081,1.284
,,,-0.0808,1.284
,,,-0.0806,1.288
,,,-0.0804,1.28
,,,-0.0802,1.28
,,,-0.08,1.268
,,,-0.0798,1.272
,,,-0.0796,1.268
,,,-0.0794,1.264
,,,-0.0792,1.26
,,,-0.079,1.252
,,,-0.0788,1.244
,,,-0.0786,1.244
,,,-0.0784,1.248
,,,-0.0782,1.236
,,,-0.078,1.232
,,,-0.0778,1.224
,,,-0.0776,1.228
,,,-0.0774,1.224
,,,-0.0772,1.22
,,,-0.077,1.208
,,,-0.0768,1.208
,,,-0.0766,1.208
,,,-0.0764,1.204
,,,-0.0762,1.196
,,,-0.076,1.196
,,,-0.0758,1.192
,,,-0.0756,1.192
,,,-0.0754,1.188
,,,-0.0752,1.18
,,,-0.075,1.188
,,,-0.0748,1.18
,,,-0.0746,1.172
,,,-0.0744,1.172
,,,-0.0742,1.172
,,,-0.074,1.168
,,,-0.0738,1.164
,,,-0.0736,1.164
,,,-0.0734,1.164
,,,-0.0732,1.164
,,,-0.073,1.16
,,,-0.0728,1.164
,,,-0.0726,1.16
,,,-0.0724,1.164
,,,-0.0722,1.164
,,,-0.072,1.168
,,,-0.0718,1.164
,,,-0.0716,1.168
,,,-0.0714,1.172
,,,-0.0712,1.172
,,,-0.071,1.168
,,,-0.0708,1.18
,,,-0.0706,1.172
,,,-0.0704,1.18
,,,-0.0702,1.184
,,,-0.07,1.18
,,,-0.0698,1.188
,,,-0.0696,1.196
,,,-0.0694,1.192
,,,-0.0692,1.196
,,,-0.069,1.204
,,,-0.0688,1.204
,,,-0.0686,1.204
,,,-0.0684,1.216
,,,-0.0682,1.216
,,,-0.068,1.22
,,,-0.0678,1.224
,,,-0.0676,1.228
,,,-0.0674,1.228
,,,-0.0672,1.236
,,,-0.067,1.236
,,,-0.0668,1.244
,,,-0.0666,1.244
,,,-0.0664,1.248
,,,-0.0662,1.26
,,,-0.066,1.26
,,,-0.0658,1.26
,,,-0.0656,1.272
,,,-0.0654,1.272
,,,-0.0652,1.272
,,,-0.065,1.272
,,,-0.0648,1.28
,,,-0.0646,1.276
,,,-0.0644,1.272
,,,-0.0642,1.28
,,,-0.064,1.284
,,,-0.0638,1.284
,,,-0.0636,1.284
,,,-0.0634,1.292
,,,-0.0632,1.292
,,,-0.063,1.292
,,,-0.0628,1.3
,,,-0.0626,1.296
,,,-0.0624,1.296
,,,-0.0622,1.296
,,,-0.062,1.292
,,,-0.0618,1.296
,,,-0.0616,1.296
,,,-0.0614,1.296
,,,-0.0612,1.284
,,,-0.061,1.288
,,,-0.0608,1.296
,,,-0.0606,1.292
,,,-0.0604,1.296
,,,-0.0602,1.284
,,,-0.06,1.284
,,,-0.0598,1.288
,,,-0.0596,1.28
,,,-0.0594,1.284
,,,-0.0592,1.276
,,,-0.059,1.272
,,,-0.0588,1.268
,,,-0.0586,1.264
,,,-0.0584,1.264
,,,-0.0582,1.256
,,,-0.058,1.256
,,,-0.0578,1.248
,,,-0.0576,1.244
,,,-0.0574,1.244
,,,-0.0572,1.244
,,,-0.057,1.24
,,,-0.0568,1.232
,,,-0.0566,1.232
,,,-0.0564,1.224
,,,-0.0562,1.228
,,,-0.056,1.216
,,,-0.0558,1.216
,,,-0.0556,1.212
,,,-0.0554,1.208
,,,-0.0552,1.208
,,,-0.055,1.2
,,,-0.0548,1.196
,,,-0.0546,1.2
,,,-0.0544,1.196
,,,-0.0542,1.184
,,,-0.054,1.18
,,,-0.0538,1.184
,,,-0.0536,1.184
,,,-0.0534,1.184
,,,-0.0532,1.176
,,,-0.053,1.18
,,,-0.0528,1.176
,,,-0.0526,1.172
,,,-0.0524,1.168
,,,-0.0522,1.172
,,,-0.052,1.168
,,,-0.0518,1.164
,,,-0.0516,1.168
,,,-0.0514,1.168
,,,-0.0512,1.164
,,,-0.051,1.168
,,,-0.0508,1.168
,,,-0.0506,1.168
,,,-0.0504,1.168
,,,-0.0502,1.176
,,,-0.05,1.176
,,,-0.0498,1.18
,,,-0.0496,1.18
,,,-0.0494,1.176
,,,-0.0492,1.18
,,,-0.049,1.184
,,,-0.0488,1.188
,,,-0.0486,1.188
,,,-0.0484,1.192
,,,-0.0482,1.196
,,,-0.048,1.2
,,,-0.0478,1.204
,,,-0.0476,1.2
,,,-0.0474,1.204
,,,-0.0472,1.212
,,,-0.047,1.224
,,,-0.0468,1.212
,,,-0.0466,1.224
,,,-0.0464,1.228
,,,-0.0462,1.232
,,,-0.046,1.236
,,,-0.0458,1.24
,,,-0.0456,1.244
,,,-0.0454,1.248
,,,-0.0452,1.248
,,,-0.045,1.248
,,,-0.0448,1.256
,,,-0.0446,1.264
,,,-0.0444,1.264
,,,-0.0442,1.264
,,,-0.044,1.272
,,,-0.0438,1.272
,,,-0.0436,1.272
,,,-0.0434,1.28
,,,-0.0432,1.276
,,,-0.043,1.28
,,,-0.0428,1.28
,,,-0.0426,1.284
,,,-0.0424,1.296
,,,-0.0422,1.288
,,,-0.042,1.288
,,,-0.0418,1.284
,,,-0.0416,1.288
,,,-0.0414,1.296
,,,-0.0412,1.292
,,,-0.041,1.292
,,,-0.0408,1.292
,,,-0.0406,1.296
,,,-0.0404,1.288
,,,-0.0402,1.292
,,,-0.04,1.292
,,,-0.0398,1.292
,,,-0.0396,1.288
,,,-0.0394,1.284
,,,-0.0392,1.284
,,,-0.039,1.288
,,,-0.0388,1.284
,,,-0.0386,1.28
,,,-0.0384,1.28
,,,-0.0382,1.276
,,,-0.038,1.28
,,,-0.0378,1.272
,,,-0.0376,1.268
,,,-0.0374,1.264
,,,-0.0372,1.264
,,,-0.037,1.26
,,,-0.0368,1.256
,,,-0.0366,1.252
,,,-0.0364,1.248
,,,-0.0362,1.248
,,,-0.036,1.244
,,,-0.0358,1.236
,,,-0.0356,1.232
,,,-0.0354,1.228
,,,-0.0352,1.228
,,,-0.035,1.224
,,,-0.0348,1.22
,,,-0.0346,1.22
,,,-0.0344,1.212
,,,-0.0342,1.208
,,,-0.034,1.208
,,,-0.0338,1.204
,,,-0.0336,1.2
,,,-0.0334,1.196
,,,-0.0332,1.196
,,,-0.033,1.204
,,,-0.0328,1.188
,,,-0.0326,1.188
,,,-0.0324,1.18
,,,-0.0322,1.184
,,,-0.032,1.188
,,,-0.0318,1.18
,,,-0.0316,1.176
,,,-0.0314,1.18
,,,-0.0312,1.176
,,,-0.031,1.18
,,,-0.0308,1.168
,,,-0.0306,1.18
,,,-0.0304,1.176
,,,-0.0302,1.18
,,,-0.03,1.172
,,,-0.0298,1.176
,,,-0.0296,1.176
,,,-0.0294,1.172
,,,-0.0292,1.176
,,,-0.029,1.18
,,,-0.0288,1.18
,,,-0.0286,1.18
,,,-0.0284,1.184
,,,-0.0282,1.184
,,,-0.028,1.184
,,,-0.0278,1.188
,,,-0.0276,1.192
,,,-0.0274,1.196
,,,-0.0272,1.196
,,,-0.027,1.196
,,,-0.0268,1.212
,,,-0.0266,1.2
,,,-0.0264,1.212
,,,-0.0262,1.208
,,,-0.026,1.216
,,,-0.0258,1.216
,,,-0.0256,1.22
,,,-0.0254,1.228
,,,-0.0252,1.228
,,,-0.025,1.232
,,,-0.0248,1.232
,,,-0.0246,1.236
,,,-0.0244,1.24
,,,-0.0242,1.24
,,,-0.024,1.244
,,,-0.0238,1.244
,,,-0.0236,1.256
,,,-0.0234,1.256
,,,-0.0232,1.26
,,,-0.023,1.256
,,,-0.0228,1.268
,,,-0.0226,1.268
,,,-0.0224,1.272
,,,-0.0222,1.268
,,,-0.022,1.272
,,,-0.0218,1.28
,,,-0.0216,1.28
,,,-0.0214,1.28
,,,-0.0212,1.284
,,,-0.021,1.28
,,,-0.0208,1.284
,,,-0.0206,1.28
,,,-0.0204,1.28
,,,-0.0202,1.284
,,,-0.02,1.284
,,,-0.0198,1.284
,,,-0.0196,1.284
,,,-0.0194,1.284
,,,-0.0192,1.288
,,,-0.019,1.296
,,,-0.0188,1.284
,,,-0.0186,1.28
,,,-0.0184,1.28
,,,-0.0182,1.28
,,,-0.018,1.28
,,,-0.0178,1.276
,,,-0.0176,1.28
,,,-0.0174,1.284
,,,-0.0172,1.276
,,,-0.017,1.272
,,,-0.0168,1.268
,,,-0.0166,1.264
,,,-0.0164,1.264
,,,-0.0162,1.264
,,,-0.016,1.264
,,,-0.0158,1.264
,,,-0.0156,1.256
,,,-0.0154,1.248
,,,-0.0152,1.244
,,,-0.015,1.244
,,,-0.0148,1.244
,,,-0.0146,1.236
,,,-0.0144,1.232
,,,-0.0142,1.228
,,,-0.014,1.232
,,,-0.0138,1.228
,,,-0.0136,1.22
,,,-0.0134,1.216
,,,-0.0132,1.216
,,,-0.013,1.22
,,,-0.0128,1.212
,,,-0.0126,1.212
,,,-0.0124,1.2
,,,-0.0122,1.2
,,,-0.012,1.2
